…
###What is mean total number of steps taken per day?
For this section, we are ignoring the missing values in the dataset
1. Calculating the total number of steps taken per day
```{r, echo=TRUE}
library(dplyr)
stepstakenperday <- activity %>%
  filter(!is.na(steps)) %>%
  group_by(date) %>%
  summarize(steps = sum(steps)) %>%
  print
```
```{r}
## # A tibble: 53 x 2
##          date steps
##        <date> <int>
##  1 2012-10-02   126
##  2 2012-10-03 11352
##  3 2012-10-04 12116
##  4 2012-10-05 13294
##  5 2012-10-06 15420
##  6 2012-10-07 11015
##  7 2012-10-09 12811
##  8 2012-10-10  9900
##  9 2012-10-11 10304
## 10 2012-10-12 17382
## # ... with 43 more rows
```
…
###What is the average daily activity pattern?

Time series plot (i.e. type = "l") of the 5-minute interval (x-axis) and the average number of steps taken, averaged across all days (y-axis)
```{r, echo= TRUE}
averagedailyactivitypattern <- activity %>%
  filter(!is.na(steps)) %>%
  group_by(interval) %>%
  summarize(steps = sum(steps)) %>%
  print

```{r}
## # A tibble: 288 x 2
##    interval steps
##       <int> <int>
##  1        0    91
##  2        5    18
##  3       10     7
##  4       15     8
##  5       20     4
##  6       25   111
##  7       30    28
##  8       35    46
##  9       40     0
## 10       45    78
## # ... with 278 more rows
```
…
stepstakenperday2 <- mergedactivty %>%
  filter(!is.na(steps)) %>%
  group_by(date) %>%
  summarize(steps = sum(steps)) %>%
  print

library(ggplot2)
ggplot(stepstakenperday2, aes(x = steps)) +
  geom_histogram(fill = "blue", binwidth = 1000) +
  labs(title = "Histogram of the total number of steps taken each day", x = "Steps per day", y = "Frequency")
```

```{r}
## # A tibble: 61 x 2
##          date    steps
##        <date>    <dbl>
##  1 2012-10-01 10766.19
##  2 2012-10-02   126.00
##  3 2012-10-03 11352.00
##  4 2012-10-04 12116.00
##  5 2012-10-05 13294.00
##  6 2012-10-06 15420.00
##  7 2012-10-07 11015.00
##  8 2012-10-08 10766.19
##  9 2012-10-09 12811.00
## 10 2012-10-10  9900.00
## # ... with 51 more rows
```
…
Plot the daily activity pattern with week day flag
```{r, echo= TRUE}
averagedailyactivitypattern <- mergedactivty %>%
  filter(!is.na(steps)) %>%
  group_by(interval,weekdayflag) %>%
  summarize(steps = mean(steps)) %>%
  print
```

```{r}
## # A tibble: 576 x 3
## # Groups:   interval [?]
##    interval weekdayflag       steps
##       <int>       <chr>       <dbl>
##  1        0    Weekdays 2.251153040
##  2        0    Weekends 0.214622642
##  3        5    Weekdays 0.445283019
##  4        5    Weekends 0.042452830
##  5       10    Weekdays 0.173165618
##  6       10    Weekends 0.016509434
##  7       15    Weekdays 0.197903564
##  8       15    Weekends 0.018867925
##  9       20    Weekdays 0.098951782
## 10       20    Weekends 0.009433962
## # ... with 566 more rows
```
…
